"aifstime_utc (S)","air_temp (N)","apparent_temp (N)","local_date_time_full (S)"
"20161020053000","20.9","14.6","20161020163000"
"20161021003000","14.3","11.9","20161021113000"
"20161019140000","11.1","7","20161020010000"
"20161020130000","17.7","12.7","20161021000000"
"20161020083000","20.1","14.7","20161020193000"
"20161020063100","21.2","14.8","20161020173100"
"20161019200000","7.3","3.7","20161020070000"
"20161019173000","8.5","4.4","20161020043000"
"20161020160000","19.2","13.3","20161021030000"
"20161020060000","21.1","14.8","20161020170000"
"20161020120000","18.3","12.5","20161020230000"
"20161020163000","19.5","12.9","20161021033000"
"20161020223000","17.2","11.2","20161021093000"
"20161020133000","18.1","12.2","20161021003000"
"20161020030000","19.6","12.1","20161020140000"
"20161020013000","19.3","13.2","20161020123000"
"20161019150000","10.5","7.2","20161020020000"
"20161020073000","21","16.1","20161020183000"
"20161019193000","7","3.4","20161020063000"
"20161020210000","16.6","10.2","20161021080000"
"20161019224400","15.9","9","20161020094400"
"20161020000000","17.7","11.1","20161020110000"
"20161020171600","19.9","13.2","20161021041600"
"20161020070000","21","15","20161020180000"
"20161019232200","16.7","9.6","20161020102200"
"20161019230000","16.3","10.1","20161020100000"
"20161020180000","19.6","15","20161021050000"
"20161019120000","11.8","8","20161019230000"
"20161020233000","17.6","15.1","20161021103000"
"20161019180000","7.7","4","20161020050000"
"20161020040000","20.4","14.1","20161020150000"
"20161020080000","20.6","14.9","20161020190000"
"20161020090000","19.6","14.7","20161020200000"
"20161020063000","21.2","15.2","20161020173000"
"20161019203000","9","5.3","20161020073000"
"20161021000000","15.2","13.6","20161021110000"
"20161019160000","9.3","6","20161020030000"
"20161020061000","21","14.7","20161020171000"
"20161020190000","18","11.7","20161021060000"
"20161020023900","19.5","12.4","20161020133900"
"20161020150000","18.8","12.9","20161021020000"
"20161020003800","17.7","9.9","20161020113800"
"20161020050000","21.4","15.2","20161020160000"
"20161020183000","20","14.4","20161021053000"
"20161020213000","16.7","11.1","20161021083000"
"20161020161100","19.4","12.7","20161021031100"
"20161020221400","17.2","10.5","20161021091400"
"20161020230000","17.3","12.8","20161021100000"
"20161019183000","7.4","3.8","20161020053000"
"20161020001500","17.7","10.7","20161020111500"
"20161020113000","18.2","12.8","20161020223000"
"20161019170000","8.9","5.2","20161020040000"
"20161019210000","11.7","7.6","20161020080000"
"20161019223000","15.7","9.5","20161020093000"
"20161020023000","19.3","12.6","20161020133000"
"20161020153000","18.6","12.7","20161021023000"
"20161020140000","17.8","11.9","20161021010000"
"20161019190000","7.2","4.3","20161020060000"
"20161020100000","18.9","12.8","20161020210000"
"20161020200400","17","10.5","20161021070400"
"20161020110000","18.5","13.1","20161020220000"
"20161020033000","20.2","13","20161020143000"
"20161020123000","17.8","13","20161020233000"
"20161019143000","10.9","7.2","20161020013000"
"20161020014000","18.7","11.7","20161020124000"
"20161020143000","18.2","13.1","20161021013000"
"20161020050900","20.7","14.3","20161020160900"
"20161020010000","18.4","11.5","20161020120000"
"20161020020000","19.5","12.7","20161020130000"
"20161019213000","12.9","8.9","20161020083000"
"20161019133000","11.2","7.6","20161020003000"
"20161020045200","20.6","14.2","20161020155200"
"20161020193600","17.2","10.7","20161021063600"
"20161020173000","19.9","13.9","20161021043000"
"20161020003000","17.8","10.8","20161020113000"
"20161019163000","9.4","6.1","20161020033000"
"20161020203000","16.4","10.3","20161021073000"
"20161019130000","11.7","8.1","20161020000000"
"20161020031400","20.2","13.1","20161020141400"
"20161019123000","11.6","7.9","20161019233000"
"20161020170000","20","13.7","20161021040000"
"20161019153000","9.8","6.1","20161020023000"
"20161020093000","19.1","13.8","20161020203000"
"20161019233000","17","10","20161020103000"
"20161020193000","17.3","11.1","20161021063000"
"20161020144100","18.8","12.1","20161021014100"
"20161019220000","14.9","9.1","20161020090000"
"20161020220000","16.9","10.6","20161021090000"
"20161020043000","20.5","14.7","20161020153000"
"20161020103000","18.6","13.8","20161020213000"
"20161020200000","17","10.9","20161021070000"
